{
  "project_info": {
    "project_number": "385971276517",
    "firebase_url": "https://wallpaper-mobile-legend-3900e.firebaseio.com",
    "project_id": "wallpaper-mobile-legend-3900e",
    "storage_bucket": "wallpaper-mobile-legend-3900e.appspot.com"
  },
  "client": [
    {
      "client_info": {
        "mobilesdk_app_id": "1:385971276517:android:721801bd8ae487ffaca20c",
        "android_client_info": {
          "package_name": "com.xplorasoft.wallpapermobol"
        }
      },
      "oauth_client": [
        {
          "client_id": "385971276517-4m6l6khv04vu843pcg0m9immk9e1finp.apps.googleusercontent.com",
          "client_type": 3
        }
      ],
      "api_key": [
        {
          "current_key": "AIzaSyAFq7RwdLUfls6KPYM34vASfp4edviMeSE"
        }
      ],
      "services": {
        "appinvite_service": {
          "other_platform_oauth_client": [
            {
              "client_id": "385971276517-4m6l6khv04vu843pcg0m9immk9e1finp.apps.googleusercontent.com",
              "client_type": 3
            }
          ]
        }
      }
    }
  ],
  "configuration_version": "1"
}